<svg width="20" height="20" viewBox="0 0 20 20" fill="none" xmlns="http://www.w3.org/2000/svg">
<path fill-rule="evenodd" clip-rule="evenodd" d="M1.55172 8.27586C0.696207 8.27586 0 8.97241 0 9.82759C0 10.6828 0.696207 11.3793 1.55172 11.3793H7.74966C8.13035 11.3793 8.57966 11.6897 8.57966 12.069V18.4483C8.57966 19.3034 9.27586 20 10.1314 20C10.9869 20 11.6831 19.3034 11.6831 18.4483V12.069C11.6831 11.6897 11.8514 11.3793 12.2324 11.3793H18.4483C19.3041 11.3793 20 10.6828 20 9.82759C20 8.97241 19.3041 8.27586 18.4483 8.27586H12.2324C11.8514 8.27586 11.6831 7.96552 11.6831 7.58621V1.55172C11.6831 0.696552 10.9869 0 10.1314 0C9.27586 0 8.57966 0.696552 8.57966 1.55172V7.58621C8.57966 7.96552 8.13035 8.27586 7.74966 8.27586H1.55172Z" fill="white"/>
</svg>
